<svg width="50" height="50" viewBox="0 0 50 50" fill="none" xmlns="http://www.w3.org/2000/svg">
<rect width="50" height="50" rx="5" fill="#DFF8FF"/>
<path opacity="0.4" d="M24.9998 41.6666C32.9803 41.6666 39.4498 35.1971 39.4498 27.2166C39.4498 19.2361 32.9803 12.7666 24.9998 12.7666C17.0193 12.7666 10.5498 19.2361 10.5498 27.2166C10.5498 35.1971 17.0193 41.6666 24.9998 41.6666Z" fill="#51D7FA"/>
<path d="M25 27.9168C24.3167 27.9168 23.75 27.3502 23.75 26.6668V18.3335C23.75 17.6502 24.3167 17.0835 25 17.0835C25.6833 17.0835 26.25 17.6502 26.25 18.3335V26.6668C26.25 27.3502 25.6833 27.9168 25 27.9168Z" fill="#51D7FA"/>
<path d="M29.8167 10.7502H20.1834C19.5167 10.7502 18.9834 10.2168 18.9834 9.55016C18.9834 8.8835 19.5167 8.3335 20.1834 8.3335H29.8167C30.4834 8.3335 31.0167 8.86683 31.0167 9.5335C31.0167 10.2002 30.4834 10.7502 29.8167 10.7502Z" fill="#51D7FA"/>
</svg>
