<svg width="30" height="30" viewBox="0 0 30 30" fill="none" xmlns="http://www.w3.org/2000/svg">
<path opacity="0.4" d="M15 27.5C21.9036 27.5 27.5 21.9036 27.5 15C27.5 8.09644 21.9036 2.5 15 2.5C8.09644 2.5 2.5 8.09644 2.5 15C2.5 21.9036 8.09644 27.5 15 27.5Z" fill="#7C9AA1"/>
<path d="M16.325 15L19.2 12.125C19.5625 11.7625 19.5625 11.1625 19.2 10.8C18.8375 10.4375 18.2375 10.4375 17.875 10.8L15 13.675L12.125 10.8C11.7625 10.4375 11.1625 10.4375 10.8 10.8C10.4375 11.1625 10.4375 11.7625 10.8 12.125L13.675 15L10.8 17.875C10.4375 18.2375 10.4375 18.8375 10.8 19.2C10.9875 19.3875 11.225 19.475 11.4625 19.475C11.7 19.475 11.9375 19.3875 12.125 19.2L15 16.325L17.875 19.2C18.0625 19.3875 18.3 19.475 18.5375 19.475C18.775 19.475 19.0125 19.3875 19.2 19.2C19.5625 18.8375 19.5625 18.2375 19.2 17.875L16.325 15Z" fill="#7C9AA1"/>
</svg>
