<svg width="19" height="18" viewBox="0 0 19 18" fill="none" xmlns="http://www.w3.org/2000/svg">
<path fill-rule="evenodd" clip-rule="evenodd" d="M9.5 1.5C5.3525 1.5 2 4.8525 2 9C2 13.1475 5.3525 16.5 9.5 16.5C13.6475 16.5 17 13.1475 17 9C17 4.8525 13.6475 1.5 9.5 1.5ZM13.25 11.6925L12.1925 12.75L9.5 10.0575L6.8075 12.75L5.75 11.6925L8.4425 9L5.75 6.3075L6.8075 5.25L9.5 7.9425L12.1925 5.25L13.25 6.3075L10.5575 9L13.25 11.6925Z" fill="#7C9AA1"/>
</svg>
