<svg width="20" height="21" viewBox="0 0 20 21" fill="none" xmlns="http://www.w3.org/2000/svg">
<path opacity="0.4" d="M13.9974 8H5.9974C3.33073 8 1.66406 9.66667 1.66406 12.3333V14.4917C1.66406 17.1667 3.33073 18.8333 5.9974 18.8333H13.9891C16.6557 18.8333 18.3224 17.1667 18.3224 14.5V12.3333C18.3307 9.66667 16.6641 8 13.9974 8Z" fill="#0F94B5"/>
<path d="M13.2339 10.8587L10.4422 13.6503C10.2005 13.892 9.80052 13.892 9.55885 13.6503L6.76719 10.8587C6.52552 10.617 6.52552 10.217 6.76719 9.97533C7.00885 9.73366 7.40885 9.73366 7.65052 9.97533L9.37552 11.7003V2.79199C9.37552 2.45033 9.65885 2.16699 10.0005 2.16699C10.3422 2.16699 10.6255 2.45033 10.6255 2.79199V11.7003L12.3505 9.97533C12.4755 9.85033 12.6339 9.79199 12.7922 9.79199C12.9505 9.79199 13.1089 9.85033 13.2339 9.97533C13.4839 10.217 13.4839 10.6087 13.2339 10.8587Z" fill="#0F94B5"/>
</svg>
