<svg width="12" height="8" viewBox="0 0 12 8" fill="none" xmlns="http://www.w3.org/2000/svg">
<path fill-rule="evenodd" clip-rule="evenodd" d="M0.46967 0.96967C0.762563 0.676777 1.23744 0.676777 1.53033 0.96967L6 5.43934L10.4697 0.96967C10.7626 0.676777 11.2374 0.676777 11.5303 0.96967C11.8232 1.26256 11.8232 1.73744 11.5303 2.03033L6.53033 7.03033C6.38968 7.17098 6.19891 7.25 6 7.25C5.80109 7.25 5.61032 7.17098 5.46967 7.03033L0.46967 2.03033C0.176777 1.73744 0.176777 1.26256 0.46967 0.96967Z" fill="#7C9AA1"/>
</svg>
