<svg width="163" height="36" viewBox="0 0 163 36" fill="none" xmlns="http://www.w3.org/2000/svg">
<path d="M50.6501 15.137H53.4308L53.9916 18.4912C55.5498 18.1318 56.9974 17.8396 58.3542 17.6479L58.0425 15.1514H60.6265L60.8904 17.4131C61.1826 17.4131 61.4943 17.4131 61.7628 17.4131C63.1724 17.3365 64.579 17.6098 65.8568 18.2085C66.7795 18.6785 67.5519 19.3969 68.0873 20.2826C68.6228 21.1682 68.8998 22.1859 68.8867 23.2206C68.8867 26.9246 66.0105 29.1432 60.8904 29.1432H59.4521V26.5556L61.322 26.6179C64.5769 26.6179 66.2453 25.4392 66.2453 23.3452C66.2453 21.0596 64.4426 19.7275 61.1877 19.7898L61.7485 24.3131H59.1645L58.6325 20.0006C57.1917 20.2009 55.7639 20.4841 54.356 20.8488L56.4843 33.5419H53.7231L51.7383 21.6106L48.5983 22.7079L48.2866 20.0869L51.2975 19.1668L50.6501 15.137Z" fill="#0F94B5"/>
<path d="M91.8457 20.3839H86.3658C87.1044 22.0753 87.905 24.0831 88.7964 26.4502L86.3227 27.1066C84.618 26.0091 82.6261 25.4421 80.5987 25.4775C77.7939 25.4775 76.2121 26.5556 76.2121 28.0985C76.2121 29.8331 78.326 30.9735 82.3579 30.9735C84.5673 30.9822 86.7729 30.7978 88.9502 30.4225V33.0244C87.0216 33.3456 85.0702 33.5059 83.1155 33.5035C76.6386 33.5467 73.3401 31.6827 73.273 28.1129C73.2299 25.2379 75.9676 23.2062 80.3111 23.2062C81.8761 23.1702 83.4339 23.4354 84.8988 23.9872L83.4174 20.3839H72.1611V17.9497H82.382L81.1785 15.1609H84.1416L85.335 17.9497H91.8601L91.8457 20.3839Z" fill="#0F94B5"/>
<path d="M98.8407 25.396C98.8407 27.1306 98.9315 28.1896 99.9095 29.33C100.576 30.0919 101.602 30.8106 104.32 30.8969C106.502 30.8537 108.731 30.135 110.073 28.2327C110.84 26.989 111.227 25.5483 111.185 24.0879L111.142 22.6887H113.837L113.947 24.7012C113.904 26.7041 113.525 29.0569 111.765 30.7244C110.006 32.3919 107.537 33.4317 104.416 33.4748C99.9192 33.4317 98.1836 31.7833 97.3784 30.686C96.2661 29.2869 95.9401 27.6385 95.9975 25.4152V15.0124H98.85L98.8407 25.396Z" fill="#0F94B5"/>
<path d="M121.488 21.7783C121.512 26.2393 121.757 27.7199 122.557 28.8412C122.86 29.2657 123.262 29.61 123.728 29.8446C124.194 30.0792 124.71 30.1969 125.232 30.1877C126.143 30.1877 127.15 29.8091 128.411 29.1718L128.55 31.7977C127.432 32.4006 126.186 32.7291 124.916 32.756C122.356 32.7129 120.529 31.4431 119.594 29.4018C118.66 27.3606 118.568 25.0031 118.568 21.7687V16.6799H121.488V21.7783ZM134.605 29.6222V27.8253C134.605 23.0864 133.071 20.427 129.93 19.876L130.218 17.3795C135.05 18.1413 137.505 21.6489 137.505 27.8493V29.6222H134.605Z" fill="#0F94B5"/>
<path d="M161.082 17.0824L153.891 17.5856V20.2977H162.271V22.8037H153.891V25.4295H163V28.0554H153.891V31.3281C153.891 33.6233 152.932 34.5625 150.483 34.5625H147.103L146.873 32.0517H149.749C150.669 32.0517 150.9 31.8121 150.9 30.9592V28.0554H141.791V25.4295H150.9V22.8037H142.448V20.2977H150.919V17.7868L143.761 18.266L143.344 15.621L160.603 14.5284L161.082 17.0824Z" fill="#0F94B5"/>
<path d="M55.1805 4.47069C55.0036 4.95145 54.765 5.40727 54.4707 5.82671L53.3968 5.20379C53.4834 5.09361 53.5982 4.94505 53.6992 4.79653H52.3854V5.68778C52.7976 6.35269 53.2921 6.96289 53.8571 7.50381L53.181 8.46216C52.8681 8.09321 52.6008 7.68779 52.3854 7.25466V11.8834H51.3593V6.88088C51.0776 7.84171 50.649 8.7533 50.0891 9.5834L49.6094 8.22737C50.3479 7.18174 50.8948 6.0137 51.225 4.77735H49.8108V3.72796H51.3593V1.78253H52.3854V3.72796H53.6941V4.79171C54.1797 3.97551 54.5171 3.08012 54.6915 2.1467L55.8131 2.30962C55.7459 2.61149 55.6598 2.96129 55.5209 3.4165H56.3502V1.78253H57.4144V3.40691H59.6867V4.47069H57.4144V5.98005H59.9265V7.05339H57.7834C58.3362 8.15554 59.1271 9.12117 60.0992 9.88048L59.538 11.064C58.6542 10.2901 57.9397 9.34236 57.4384 8.28007V11.8834H56.3739V8.3136C55.7455 9.35434 54.92 10.2625 53.9437 10.9874L53.2148 10.0003C54.3752 9.25266 55.3439 8.24328 56.0432 7.05339H53.6941V5.98005H56.3502V4.47069H55.1805Z" fill="#0F94B5"/>
<path d="M70.5308 3.48356H71.6912V4.55689H68.4645C68.5076 5.37627 68.6326 7.58048 69.2939 9.18089C69.3467 9.30069 69.831 10.4986 70.2816 10.4986C70.6507 10.4986 70.8234 9.37734 70.8859 8.87903L71.8783 9.43963C71.7245 10.2686 71.4323 11.8355 70.4687 11.8355C69.8213 11.8355 67.5921 11.0928 67.343 4.54254H61.6616V3.48356H67.3092C67.3092 3.24398 67.2805 2.04605 67.2708 1.77293H68.4118C68.4118 2.43897 68.4118 3.05231 68.4118 3.48356H70.3585C69.8572 3.11283 69.3209 2.79187 68.7572 2.52522L69.3995 1.68188C70.0076 1.97126 70.5882 2.31444 71.135 2.70731L70.5308 3.48356ZM61.6616 10.3788L63.9436 10.0865V6.96714H61.844V5.90338H67.0313V6.96714H65.0513V9.94756C66.2881 9.76547 66.9448 9.63612 67.3666 9.54984V10.5417C65.6121 10.9299 63.1143 11.294 61.844 11.4569L61.6616 10.3788Z" fill="#0F94B5"/>
<path d="M75.7037 5.12709C75.1442 5.4927 74.55 5.80246 73.9301 6.05187L73.2925 5.02168C75.0327 4.41793 77.0415 3.10498 77.957 1.70581H79.1938C79.9801 2.93249 81.7106 4.14957 83.8444 4.97852L83.154 6.05187C82.5598 5.7645 81.9821 5.4446 81.4231 5.09356V5.7069H75.7037V5.12709ZM82.1232 11.9457C81.9893 11.6981 81.8424 11.4582 81.6819 11.2269C80.2056 11.3754 77.794 11.5479 74.0353 11.6246L73.8773 10.5082C74.1024 10.5082 75.0804 10.5082 75.4161 10.5082C75.835 9.70403 76.1847 8.86564 76.4613 8.0021H73.6949V6.94793H83.4175V7.99252H77.8083C77.4393 8.85983 77.0221 9.77502 76.6576 10.465C78.6664 10.4219 78.8919 10.4075 81.0493 10.3021C80.6663 9.75727 80.2415 9.24302 79.7787 8.76396L80.6946 8.20333C81.649 9.13112 82.4864 10.1723 83.1873 11.3036L82.1232 11.9457ZM80.8192 4.68625C79.9966 4.09277 79.2449 3.40619 78.5803 2.64019C77.9384 3.41972 77.1935 4.10809 76.3654 4.68625H80.8192Z" fill="#0F94B5"/>
<path d="M88.0823 11.8737H86.9747V7.71934C86.5828 8.10534 86.1449 8.44169 85.6707 8.72081L85.1914 7.62352C86.4718 6.90792 87.4945 5.80833 88.1157 4.48018H85.3354V3.42599H86.9603V1.7489H88.068V3.42599H89.3289V4.48018C89.0451 5.1309 88.6794 5.74282 88.2403 6.30103C88.6832 6.80653 89.1908 7.25126 89.7508 7.62352L89.2474 8.62499C88.8213 8.29036 88.4311 7.91303 88.0823 7.49895V11.8737ZM91.7545 1.7489H92.8858V4.79162H95.1872V5.94165H92.8858V10.3644H95.4363V11.5H89.0409V10.3692H91.7545V5.94643H89.5063V4.79162H91.7545V1.7489Z" fill="#0F94B5"/>
<path d="M39.5323 12.4584C38.1947 11.9793 36.3922 12.1757 34.7813 11.7301C33.8585 11.5333 32.9805 11.166 32.1925 10.6471C31.5677 10.2781 30.9856 9.84098 30.457 9.3438C29.1147 8.14588 27.8586 5.66376 27.2498 3.97711C26.4396 1.74418 24.6849 0 21.7845 0C18.908 0 17.1294 1.74418 16.324 3.97711C15.7103 5.66376 14.4591 8.16024 13.1119 9.32944C12.5844 9.82779 12.0022 10.265 11.3764 10.6328C10.5885 11.1517 9.71049 11.519 8.7876 11.7157C7.19117 12.1613 5.37419 11.9793 4.04144 12.4584C1.66835 13.2922 0 15.0938 0 17.988C0 20.863 1.66835 22.6887 4.04144 23.5368C5.37419 24.016 7.17682 23.8147 8.7876 24.2604C9.71113 24.4551 10.5895 24.8225 11.3764 25.3433C11.9995 25.7132 12.5812 26.1486 13.1119 26.6418C14.4591 27.8158 15.7103 30.3123 16.324 31.9989C17.1294 34.2367 18.884 35.9761 21.7845 35.9761C24.6849 35.9761 26.4396 34.2367 27.2498 31.9989C27.8586 30.3123 29.1147 27.8158 30.457 26.6418C30.9887 26.1498 31.5704 25.7146 32.1925 25.3433C32.9795 24.8225 33.8578 24.4551 34.7813 24.2604C36.3922 23.8147 38.1947 24.0112 39.5323 23.5368C41.9294 22.6887 43.5691 20.887 43.5691 17.988C43.5691 15.0938 41.9054 13.2922 39.5323 12.4584ZM29.1962 14.2169L28.0408 20.772C27.9336 21.2989 27.6521 21.7745 27.2416 22.1222C26.8312 22.4698 26.3156 22.6694 25.778 22.6887H23.3522L23.0741 25.2427C22.9079 26.8111 22.1265 27.6225 20.7298 27.6768C19.3331 27.7311 18.721 26.9709 18.8936 25.396L19.1765 22.6935H16.161C15.9208 22.7018 15.682 22.6548 15.463 22.5562C15.2439 22.4575 15.0504 22.3099 14.8976 22.1246C14.7447 21.9394 14.6364 21.7215 14.5812 21.4878C14.5259 21.2541 14.5251 21.0109 14.5789 20.7768L15.7343 14.2218C15.8415 13.6948 16.1231 13.2192 16.5335 12.8716C16.9439 12.5239 17.4595 12.3244 17.9971 12.3051H20.1353L19.1765 17.8826C19.1322 18.0283 19.1213 18.182 19.1445 18.3325C19.1677 18.4829 19.2244 18.6262 19.3105 18.7518C19.3965 18.8774 19.5098 18.982 19.6418 19.058C19.7737 19.134 19.9211 19.1793 20.073 19.1907L23.1748 19.2482C23.5094 19.2232 23.8255 19.0845 24.0705 18.8553C24.3155 18.6261 24.4748 18.3201 24.5219 17.988L25.5095 12.2907H27.6141C27.8553 12.282 28.0952 12.3291 28.3151 12.4282C28.5351 12.5274 28.7291 12.676 28.8823 12.8624C29.0353 13.0488 29.1433 13.268 29.1978 13.503C29.2522 13.7379 29.2517 13.9823 29.1962 14.2169Z" fill="#0F94B5"/>
</svg>
