<svg width="113" height="105" viewBox="0 0 113 105" fill="none" xmlns="http://www.w3.org/2000/svg">
<path d="M47.8516 105C74.2793 105 95.7031 83.5761 95.7031 57.1484C95.7031 30.7207 74.2793 9.29688 47.8516 9.29688C21.4239 9.29688 0 30.7207 0 57.1484C0 83.5761 21.4239 105 47.8516 105Z" fill="#E5EEF9"/>
<path d="M98.7257 0.675266L50.6213 60.7155C49.9463 61.5577 48.6882 61.622 47.9314 60.8522L31.8104 44.4597C31.4716 44.1152 31.0089 43.9215 30.5264 43.9215H10.8055C9.22274 43.9215 8.40902 45.8174 9.49843 46.9667L47.8709 87.4379C48.6435 88.2527 49.9643 88.1701 50.6292 87.2651L112.646 2.8724C113.522 1.68131 112.672 0 111.195 0H100.132C99.5848 0 99.0677 0.248535 98.7257 0.675266V0.675266Z" fill="#0ED290"/>
<path d="M21.6116 46.9661C20.5211 45.8168 21.3356 43.9209 22.9199 43.9209H10.8229C9.23858 43.9209 8.42408 45.8168 9.51453 46.9661L47.9235 87.4373C48.6969 88.2522 50.0189 88.1695 50.6844 87.2645L54.6891 81.8202L21.6116 46.9661Z" fill="#00C285"/>
</svg>
