1,1,0,68,71R,0,000000,1471906550,00,7,202110,0
2,2,"7113","202109","1471906550","1","00","05","11","12064","136249","122618","1725","11906"
2,3,"7113","202109","1471906550","2","12","05","2","1526","17237","0","1725","0"
2,4,"71R1","01","202109","1471906550","00142018","0000511345","","","","","","","19300806","2","13","","20190301","20220531","3","1401900038","","","","","","0","0","","90","0","0","0","1288","12402","1379","0","0","0","0","0","0","0","0","0","0","0","0","0","0","0","0","0","0","0","0","0"
2,5,"71R1","02","202109","1471906550","00142018","0000511345","A2","2411","268","4","0","0","0","1072","0","0","0",""
2,6,"71R1","02","202109","1471906550","00142018","0000511345","A2","6269","0","1","0","0","0","147","0","0","0",""
2,7,"71R1","02","202109","1471906550","00142018","0000511345","A2","6278","0","1","0","0","0","68","0","0","0",""
2,8,"71R1","02","202109","1471906550","00142018","0000511345","A2","8310","0","1","0","0","0","1","0","0","0",""
2,9,"71R1","10","202109","1471906550","00142018","0000511345","A2","4","1073","1073","215","","","1288","1070","12402","1379","0","0","0","0","0","0","0","0","0","0","0","0","0","0","0","0","0","0","0","0","0"
2,10,"71R1","01","202109","1471906550","00142018","0000582957","","","","","","","19320125","2","13","","20190901","20220831","3","1401900103","","","","","","0","0","","90","0","0","0","966","9302","1034","0","0","0","0","0","0","0","0","0","0","0","0","0","0","0","0","0","0","0","0","0"
2,11,"71R1","02","202109","1471906550","00142018","0000582957","A2","2411","268","3","0","0","0","804","0","0","0",""
2,12,"71R1","02","202109","1471906550","00142018","0000582957","A2","6269","0","1","0","0","0","110","0","0","0",""
2,13,"71R1","02","202109","1471906550","00142018","0000582957","A2","6278","0","1","0","0","0","51","0","0","0",""
2,14,"71R1","02","202109","1471906550","00142018","0000582957","A2","8310","0","1","0","0","0","1","0","0","0",""
2,15,"71R1","10","202109","1471906550","00142018","0000582957","A2","3","805","805","161","","","966","1070","9302","1034","0","0","0","0","0","0","0","0","0","0","0","0","0","0","0","0","0","0","0","0","0"
2,16,"71R1","01","202109","1471906550","00142018","0000694836","","","","","","","19340309","2","13","","20210105","20221231","3","1401900137","","","","","","0","0","","90","0","0","0","1412","13597","1511","0","0","0","0","0","0","0","0","0","0","0","0","0","0","0","0","0","0","0","0","0"
2,17,"71R1","02","202109","1471906550","00142018","0000694836","A2","1111","0","1","0","0","0","1176","0","0","0",""
2,18,"71R1","02","202109","1471906550","00142018","0000694836","A2","6269","0","1","0","0","0","161","0","0","0",""
2,19,"71R1","02","202109","1471906550","00142018","0000694836","A2","6278","0","1","0","0","0","74","0","0","0",""
2,20,"71R1","02","202109","1471906550","00142018","0000694836","A2","8310","0","1","0","0","0","1","0","0","0",""
2,21,"71R1","10","202109","1471906550","00142018","0000694836","A2","5","1177","1177","235","","","1412","1070","13597","1511","0","0","0","0","0","0","0","0","0","0","0","0","0","0","0","0","0","0","0","0","0"
2,22,"71R1","01","202109","1471906550","00142018","0000750851","","","","","","","19350308","2","12","","20200601","20220531","3","1401900103","","","","","","0","0","","90","0","0","0","645","6210","691","0","0","0","0","0","0","0","0","0","0","0","0","0","0","0","0","0","0","0","0","0"
2,23,"71R1","02","202109","1471906550","00142018","0000750851","A2","2411","268","2","0","0","0","536","0","0","0",""
2,24,"71R1","02","202109","1471906550","00142018","0000750851","A2","6269","0","1","0","0","0","74","0","0","0",""
2,25,"71R1","02","202109","1471906550","00142018","0000750851","A2","6278","0","1","0","0","0","34","0","0","0",""
2,26,"71R1","02","202109","1471906550","00142018","0000750851","A2","8310","0","1","0","0","0","1","0","0","0",""
2,27,"71R1","10","202109","1471906550","00142018","0000750851","A2","2","537","537","108","","","645","1070","6210","691","0","0","0","0","0","0","0","0","0","0","0","0","0","0","0","0","0","0","0","0","0"
2,28,"71R1","01","202109","1471906550","00142018","0001017672","","","","","","","19360518","2","12","","20200501","20230430","3","1401900145","","","","","","0","0","","90","0","0","0","1288","12402","1379","0","0","0","0","0","0","0","0","0","0","0","0","0","0","0","0","0","0","0","0","0"
2,29,"71R1","02","202109","1471906550","00142018","0001017672","A2","2411","268","4","0","0","0","1072","0","0","0",""
2,30,"71R1","02","202109","1471906550","00142018","0001017672","A2","6269","0","1","0","0","0","147","0","0","0",""
2,31,"71R1","02","202109","1471906550","00142018","0001017672","A2","6278","0","1","0","0","0","68","0","0","0",""
2,32,"71R1","02","202109","1471906550","00142018","0001017672","A2","8310","0","1","0","0","0","1","0","0","0",""
2,33,"71R1","10","202109","1471906550","00142018","0001017672","A2","4","1073","1073","215","","","1288","1070","12402","1379","0","0","0","0","0","0","0","0","0","0","0","0","0","0","0","0","0","0","0","0","0"
2,34,"71R1","01","202109","1471906550","00142018","0002039220","","","","","","","19410423","2","13","","20200916","20210930","3","1401900087","","","","","","0","0","","90","0","0","0","1412","13597","1511","0","0","0","0","0","0","0","0","0","0","0","0","0","0","0","0","0","0","0","0","0"
2,35,"71R1","02","202109","1471906550","00142018","0002039220","A2","1111","0","1","0","0","0","1176","0","0","0",""
2,36,"71R1","02","202109","1471906550","00142018","0002039220","A2","6269","0","1","0","0","0","161","0","0","0",""
2,37,"71R1","02","202109","1471906550","00142018","0002039220","A2","6278","0","1","0","0","0","74","0","0","0",""
2,38,"71R1","02","202109","1471906550","00142018","0002039220","A2","8310","0","1","0","0","0","1","0","0","0",""
2,39,"71R1","10","202109","1471906550","00142018","0002039220","A2","5","1177","1177","235","","","1412","1070","13597","1511","0","0","0","0","0","0","0","0","0","0","0","0","0","0","0","0","0","0","0","0","0"
2,40,"71R1","01","202109","1471906550","00142018","0002223758","","","","","","","19430925","2","12","","20190701","20220630","3","1401900111","","","","","","0","0","","90","0","0","0","1412","13597","1511","0","0","0","0","0","0","0","0","0","0","0","0","0","0","0","0","0","0","0","0","0"
2,41,"71R1","02","202109","1471906550","00142018","0002223758","A2","1111","0","1","0","0","0","1176","0","0","0",""
2,42,"71R1","02","202109","1471906550","00142018","0002223758","A2","6269","0","1","0","0","0","161","0","0","0",""
2,43,"71R1","02","202109","1471906550","00142018","0002223758","A2","6278","0","1","0","0","0","74","0","0","0",""
2,44,"71R1","02","202109","1471906550","00142018","0002223758","A2","8310","0","1","0","0","0","1","0","0","0",""
2,45,"71R1","10","202109","1471906550","00142018","0002223758","A2","5","1177","1177","235","","","1412","1070","13597","1511","0","0","0","0","0","0","0","0","0","0","0","0","0","0","0","0","0","0","0","0","0"
2,46,"71R1","01","202109","1471906550","00142018","0002411190","","","","","","","19451230","1","12","","20210401","20240331","3","1401900103","","","","","","0","0","","90","0","0","0","1412","13597","1511","0","0","0","0","0","0","0","0","0","0","0","0","0","0","0","0","0","0","0","0","0"
2,47,"71R1","02","202109","1471906550","00142018","0002411190","A2","1111","0","1","0","0","0","1176","0","0","0",""
2,48,"71R1","02","202109","1471906550","00142018","0002411190","A2","6269","0","1","0","0","0","161","0","0","0",""
2,49,"71R1","02","202109","1471906550","00142018","0002411190","A2","6278","0","1","0","0","0","74","0","0","0",""
2,50,"71R1","02","202109","1471906550","00142018","0002411190","A2","8310","0","1","0","0","0","1","0","0","0",""
2,51,"71R1","10","202109","1471906550","00142018","0002411190","A2","5","1177","1177","235","","","1412","1070","13597","1511","0","0","0","0","0","0","0","0","0","0","0","0","0","0","0","0","0","0","0","0","0"
2,52,"71R1","01","202109","1471906550","00142018","0002841519","","","","","","","19510509","1","12","","20200301","20230228","3","1401900103","","","","","","0","0","","90","0","0","0","1288","12402","1379","0","0","0","0","0","0","0","0","0","0","0","0","0","0","0","0","0","0","0","0","0"
2,53,"71R1","02","202109","1471906550","00142018","0002841519","A2","2411","268","4","0","0","0","1072","0","0","0",""
2,54,"71R1","02","202109","1471906550","00142018","0002841519","A2","6269","0","1","0","0","0","147","0","0","0",""
2,55,"71R1","02","202109","1471906550","00142018","0002841519","A2","6278","0","1","0","0","0","68","0","0","0",""
2,56,"71R1","02","202109","1471906550","00142018","0002841519","A2","8310","0","1","0","0","0","1","0","0","0",""
2,57,"71R1","10","202109","1471906550","00142018","0002841519","A2","4","1073","1073","215","","","1288","1070","12402","1379","0","0","0","0","0","0","0","0","0","0","0","0","0","0","0","0","0","0","0","0","0"
2,58,"71R1","01","202109","1471906550","00142018","0003067860","12144010","5501010","","","","","19550103","1","12","","20210801","20220731","3","1401900087","","","","","","0","0","","90","100","0","0","1288","12402","0","0","0","0","1288","1379","0","0","0","0","0","0","0","0","0","0","0","0","0","0","0","0"
2,59,"71R1","02","202109","1471906550","00142018","0003067860","A2","2411","268","4","4","0","0","1072","1072","0","0",""
2,60,"71R1","02","202109","1471906550","00142018","0003067860","A2","6269","0","1","1","0","0","147","147","0","0",""
2,61,"71R1","02","202109","1471906550","00142018","0003067860","A2","6278","0","1","1","0","0","68","68","0","0",""
2,62,"71R1","02","202109","1471906550","00142018","0003067860","A2","8310","0","1","1","0","0","1","1","0","0",""
2,63,"71R1","10","202109","1471906550","00142018","0003067860","A2","4","1073","1073","215","","","1288","1070","12402","0","1288","1379","0","0","0","0","0","0","0","0","0","0","0","0","0","0","0","0","0","0","0"
2,64,"71R1","01","202109","1471906550","00142018","0003136010","12144010","0874214","","","","","19560420","1","12","","20210517","20220531","3","1401900053","","","","","","0","0","","90","100","0","0","323","3110","0","0","0","0","323","346","0","0","0","0","0","0","0","0","0","0","0","0","0","0","0","0"
2,65,"71R1","02","202109","1471906550","00142018","0003136010","A2","2411","268","1","1","0","0","268","268","0","0",""
2,66,"71R1","02","202109","1471906550","00142018","0003136010","A2","6269","0","1","1","0","0","37","37","0","0",""
2,67,"71R1","02","202109","1471906550","00142018","0003136010","A2","6278","0","1","1","0","0","17","17","0","0",""
2,68,"71R1","02","202109","1471906550","00142018","0003136010","A2","8310","0","1","1","0","0","1","1","0","0",""
2,69,"71R1","10","202109","1471906550","00142018","0003136010","A2","1","269","269","54","","","323","1070","3110","0","323","346","0","0","0","0","0","0","0","0","0","0","0","0","0","0","0","0","0","0","0"
3,70
